…
``` r
GTFSwizard::get_servicepattern(for_bus_gtfs)
## A tibble: 3 × 3
#  service_id service_pattern  pattern_frequency
#  <chr>      <chr>                        <int>
#1 U          servicepattern-1               586
#2 D          servicepattern-2               121
#3 S          servicepattern-3               116
```

Most of the functions will account for service_patterns, _e.g._ `get_frequency()` and `plot_routefrequency()`. The former arrange service_pattern from most frequent (typical day) to less frequent (rarer day), while the latter highlights the most frequent service pattern.
```r
GTFSwizard::get_frequency(for_bus_gtfs, method = "by_route")
## A tibble: 1,763 × 5
#  route_id direction_id service_pattern  pattern_frequency daily.frequency
#  <chr>           <dbl> <chr>                        <int>           <int>
#1 004                 0 servicepattern-1               586              22
#2 004                 1 servicepattern-1               586              23
#3 011                 1 servicepattern-1               586              95
#4 011                 1 servicepattern-2               121              43
#5 011                 1 servicepattern-3               116              73
#6 012                 0 servicepattern-1               586             102
## ℹ 1,757 more rows
## ℹ Use `print(n = ...)` to see more rows
…
You can use `plot_calendar()` to check the number of trips along the calendar and get a better sense of the `service_pattern` rationale. Dates without active service appear as `0` trips in trip-count mode and as `"No service"` in service-pattern mode.
``` r
GTFSwizard::plot_calendar(for_bus_gtfs, facet_by_year = TRUE)
```

<img align="center" src="figs/plot_calendar.png" width="700"/>

## Exploring

Frequency, headways, dwell times, speeds, durations, distances, fleet requirements, first departures, corridors, and hubs can be calculated directly from the schedule. Several functions support aggregation methods such as `by_trip`, `by_route`, `by_hour`, and `detailed`; see each function's help page for its exact observational unit.

``` r
GTFSwizard::get_headways(for_bus_gtfs, method = 'by_hour')
## A tibble: 73 × 5
#   hour service_pattern  pattern_frequency headway_minutes valid_trips
#  <dbl> <chr>                        <int>           <dbl>       <int>
#1     0 servicepattern-1               586            11.6           8
#2     0 servicepattern-2               121            11.6           8
#3     0 servicepattern-3               116            11.6           8
#4     1 servicepattern-1               586            64.4          32
#5     1 servicepattern-2               121            64.4          32
#6     1 servicepattern-3               116            64.4          32
## ℹ 67 more rows
## ℹ Use `print(n = ...)` to see more rows
…
