Creating, Exploring and Manipulating GTFS Files • GTFSwizard
…
You can check service_pattern using the get_servicepattern() function.

GTFSwizard::get_servicepattern(for_bus_gtfs)
## A tibble: 3 × 3
#  service_id service_pattern  pattern_frequency
#  <chr>      <chr>                        <int>
#1 U          servicepattern-1               586
#2 D          servicepattern-2               121
#3 S          servicepattern-3               116

Most analytical functions account for service patterns, including get_frequency() and plot_routefrequency(). Patterns are ordered from most frequent (a useful typical-day default) to less frequent, and route-frequency plots compare the represented patterns.

GTFSwizard::get_frequency(for_bus_gtfs, method = "by_route")
## A tibble: 1,763 × 5
#  route_id direction_id service_pattern  pattern_frequency daily.frequency
#  <chr>           <dbl> <chr>                        <int>           <int>
#1 004                 0 servicepattern-1               586              22
#2 004                 1 servicepattern-1               586              23
#3 011                 1 servicepattern-1               586              95
#4 011                 1 servicepattern-2               121              43
#5 011                 1 servicepattern-3               116              73
#6 012                 0 servicepattern-1               586             102
## ℹ 1,757 more rows
## ℹ Use `print(n = ...)` to see more rows
…
Exploring

Frequency, headways, dwell times, speeds, durations, distances, fleet requirements, first departures, corridors, and hubs can be calculated directly from the schedule. Several functions support aggregation methods such as by_trip, by_route, by_hour, and detailed; see each function’s help page for its exact observational unit.

GTFSwizard::get_headways(for_bus_gtfs, method = 'by_hour')
## A tibble: 73 × 5
#   hour service_pattern  pattern_frequency headway_minutes valid_trips
#  <dbl> <chr>                        <int>           <dbl>       <int>
#1     0 servicepattern-1               586            11.6           8
#2     0 servicepattern-2               121            11.6           8
#3     0 servicepattern-3               116            11.6           8
#4     1 servicepattern-1               586            64.4          32
#5     1 servicepattern-2               121            64.4          32
#6     1 servicepattern-3               116            64.4          32
## ℹ 67 more rows
## ℹ Use `print(n = ...)` to see more rows
…
