…
\[tidytransit::raptor()\], \[GTFSwizard::as_wizardgtfs()\],
\[GTFSwizard::filter_time()\]

## Examples

``` r
tidy_raptor(for_rail_gtfs,
   min_departure = '06:20:00',
   max_arrival = '09:40:00',
   dates = "2021-12-13",
   max_transfers = 2,
   keep = "all",
   stop_ids = '66')
#> # A tibble: 85 × 6
#>    from_stop_id to_stop_id travel_time departure_time arrival_time transfers
#>    <chr>        <chr>            <dbl> <chr>          <chr>            <int>
#>  1 66           66                   0 06:20:00       06:20:00             0
#>  2 66           67                 240 06:34:00       06:38:00             0
#>  3 66           65                 240 06:51:00       06:55:00             0
#>  4 66           67                 240 07:11:00       07:15:00             0
#>  5 66           68                 420 06:34:00       06:41:00             0
#>  6 66           64                 420 06:51:00       06:58:00             0
#>  7 66           68                 420 07:11:00       07:18:00             0
#>  8 66           63                 660 06:51:00       07:02:00             0
#>  9 66           41                 960 06:51:00       07:07:00             0
#> 10 66           40                1200 06:51:00       07:11:00             0
#> # ℹ 75 more rows
```
